A1B1C1001
A1B1C1001
A1B1C1002
A1B1C2001
A1B1C2001
A1B1C3001
A1B1C3001
A1B1C3002
A1B1C3001
A1B1C4001
A1B1C4001
A1B2C1001
A1B2C1001
A1B2C1002
A1B2C2001
A1B2C3001
A1B2C3002
A1B2C3001
A1B2C4001
A1B2C4001
A2B1C1001
A2B1C1001
A2B1C1002
A2B1C2001
A2B1C3001
A2B1C3002
A2B1C3001
A2B1C4001
A2B1C4001
A2B2C1001
A2B2C1001
A2B2C1002
A2B2C2001
A2B2C3001
A2B2C4001
A2B2C4001
A3B1C1001
A3B1C1001
A3B1C1002
A3B1C2001
A3B1C2001
A3B1C3001
A3B1C3001
A3B1C3002
A3B1C3001
A3B1C4001
A3B1C4001
A3B2C1001
A3B2C1001
A3B2C1002
A3B2C2001
A3B2C3001
A3B2C3002
A3B2C3001
A3B2C4001
A3B2C4001